circ_buffer.c:15:19:CircChunkBuffer_make	8	static
circ_buffer.c:33:9:CircChunkBuffer_forwardChunk	0	static
circ_buffer.c:40:17:CircChunkBuffer_get	8	static
circ_buffer.c:48:13:CircChunkBuffer_set	12	static
circ_buffer.c:58:21:FileReadingBuffer_make	12	static
circ_buffer.c:131:9:FileReadingBuffer_forwardChunk	24	static
circ_buffer.c:146:7:FileReadingBuffer_isFileFinished	0	static
circ_buffer.c:150:10:FileReadingBuffer_elapsedTime	0	static
