waveplayer.c:280:16:aqcuireNewAudioDataChunk	16	static
waveplayer.c:730:6:processButtons	72	static
waveplayer.c:231:6:display_volMinus	8	static
waveplayer.c:236:6:display_volPlus	8	static
waveplayer.c:241:6:displayElapsedTime	40	static
waveplayer.c:260:6:displayPlayPauseStatus	16	static
waveplayer.c:301:20:AUDIO_PLAYER_Init	56	static
waveplayer.c:343:20:AUDIO_PLAYER_Start	192	static
waveplayer.c:425:20:AUDIO_PLAYER_Process	32	static
waveplayer.c:557:6:BSP_AUDIO_OUT_TransferComplete_CallBack	0	static
waveplayer.c:572:6:BSP_AUDIO_OUT_HalfTransfer_CallBack	0	static
